setNum/simulation/qsim/setNum.msim.vcd
$comment
	File created using the following command:
		vcd file setNum.msim.vcd -direction
$end
$date
	Mon Dec 09 20:05:13 2019
$end
$version
	ModelSim Version 10.1d
$end
$timescale
	1ps
$end
$scope module setNum_vlg_vec_tst $end
$var reg 4 ! C [3:0] $end
$var reg 4 " R [3:0] $end
$var reg 1 # startSet $end
$var wire 1 $ clear $end
$var wire 1 % enter $end
$var wire 1 & num [4] $end
$var wire 1 ' num [3] $end
$var wire 1 ( num [2] $end
$var wire 1 ) num [1] $end
$var wire 1 * num [0] $end
$var wire 1 + start $end
$var wire 1 , sampler $end
$scope module i1 $end
$var wire 1 - gnd $end
$var wire 1 . vcc $end
$var wire 1 / unknown $end
$var tri1 1 0 devclrn $end
$var tri1 1 1 devpor $end
$var tri1 1 2 devoe $end
$var wire 1 3 Add3~0_combout $end
$var wire 1 4 Mux0~1_combout $end
$var wire 1 5 Mux0~4_combout $end
$var wire 1 6 startSet~combout $end
$var wire 1 7 Mux0~0_combout $end
$var wire 1 8 Mux0~2_combout $end
$var wire 1 9 WideOr0~0_combout $end
$var wire 1 : Mux0~5_combout $end
$var wire 1 ; Mux3~0_combout $end
$var wire 1 < Mux3~1_combout $end
$var wire 1 = Mux1~0_combout $end
$var wire 1 > key~0_combout $end
$var wire 1 ? Mux2~0_combout $end
$var wire 1 @ key~1_combout $end
$var wire 1 A Mux1~1_combout $end
$var wire 1 B Mux1~2_combout $end
$var wire 1 C WideOr5~2_combout $end
$var wire 1 D WideOr5~3_combout $end
$var wire 1 E num[0]~reg0_regout $end
$var wire 1 F WideOr4~2_combout $end
$var wire 1 G WideOr4~3_combout $end
$var wire 1 H num[1]~reg0_regout $end
$var wire 1 I WideOr3~2_combout $end
$var wire 1 J WideOr3~3_combout $end
$var wire 1 K num[2]~reg0_regout $end
$var wire 1 L WideOr2~2_combout $end
$var wire 1 M WideOr2~3_combout $end
$var wire 1 N num[3]~reg0_regout $end
$var wire 1 O WideOr1~2_combout $end
$var wire 1 P WideOr1~3_combout $end
$var wire 1 Q num[4]~reg0_regout $end
$var wire 1 R Mux0~3_combout $end
$var wire 1 S Decoder1~0_combout $end
$var wire 1 T Mux4~0_combout $end
$var wire 1 U Mux4~1_combout $end
$var wire 1 V Decoder1~1_combout $end
$var wire 1 W start~reg0_regout $end
$var wire 1 X Decoder1~2_combout $end
$var wire 1 Y clear~reg0_regout $end
$var wire 1 Z Decoder1~3_combout $end
$var wire 1 [ enter~reg0_regout $end
$var wire 1 \ R~combout [3] $end
$var wire 1 ] R~combout [2] $end
$var wire 1 ^ R~combout [1] $end
$var wire 1 _ R~combout [0] $end
$var wire 1 ` C~combout [3] $end
$var wire 1 a C~combout [2] $end
$var wire 1 b C~combout [1] $end
$var wire 1 c C~combout [0] $end
$upscope $end
$upscope $end
$enddefinitions $end
#0
$dumpvars
b1111 !
b111 "
0#
0$
0%
1*
1)
1(
1'
1&
0+
x,
0-
1.
x/
10
11
12
13
14
15
06
17
18
19
0:
0;
0<
1=
1>
0?
1@
0A
1B
1C
0D
0E
1F
0G
0H
1I
0J
0K
0L
0M
0N
1O
0P
0Q
0R
0S
0T
1U
0V
0W
0X
0Y
0Z
0[
1_
1^
1]
0\
1c
1b
1a
1`
$end
#10000
1#
16
0,
#20000
0#
06
1,
#30000
1#
16
0,
#40000
b1111 "
b1011 "
0#
0]
1\
06
1,
0>
1?
0O
1L
0F
0C
1P
1M
1G
1D
#50000
1#
16
0,
1Q
1N
1H
1E
0&
0'
0)
0*
#60000
0#
06
1,
#70000
1#
16
0,
#80000
b1001 "
b1101 "
0#
0^
1]
06
1,
0@
1>
0B
1A
0?
1S
0L
0I
0M
1J
#90000
1#
16
0,
0N
1K
1'
0(
#100000
0#
06
1,
#110000
1#
16
0,
#120000
b1100 "
b1110 "
0#
0_
1^
06
1,
0>
03
1?
05
1X
1O
1I
1F
1C
0P
0J
0G
0D
#130000
1#
16
0,
1Y
0Q
0K
0H
0E
1$
1&
1(
1)
1*
#140000
0#
06
1,
#150000
b111 !
1#
0`
16
0,
1T
0=
07
0U
04
1Z
0X
#160000
b110 "
b111 "
0#
1_
0\
06
1,
1@
1>
13
0A
15
0?
1B
0Z
0O
0I
0F
0S
1L
1P
1J
1G
1M
#170000
1#
16
0,
0Y
1Q
1N
1K
1H
0$
0&
0'
0(
0)
#180000
0#
06
1,
#190000
1#
16
0,
#200000
b11 "
b1011 "
0#
0]
1\
06
1,
0>
1?
1I
0J
#210000
1#
16
0,
0K
1(
#220000
0#
06
1,
#230000
1#
16
0,
#240000
b1001 "
b1101 "
0#
0^
1]
06
1,
0@
1>
1A
0?
0B
0I
1S
0L
1J
0M
#250000
1#
16
0,
0N
1K
1'
0(
#260000
0#
06
1,
#270000
1#
16
0,
#280000
b1100 "
b1110 "
0#
0_
1^
06
1,
0>
03
1?
05
1Z
1O
1I
1F
0P
0J
0G
#290000
1#
16
0,
1[
0Q
0K
0H
1%
1&
1(
1)
#300000
0#
06
1,
#310000
1#
16
0,
#320000
b110 "
b111 "
0#
1_
0\
06
1,
1@
1>
13
0A
15
0?
1B
0Z
0O
0I
0F
0S
1L
1P
1J
1G
1M
#330000
b11 !
b1011 !
1#
0a
1`
16
0,
0T
1;
1U
1<
1F
0C
0G
1D
0[
1Q
1N
1K
1H
0%
0&
0'
0(
0)
#340000
0#
06
1,
#350000
1#
16
0,
0H
1E
1)
0*
#360000
b11 "
b1011 "
0#
0]
1\
06
1,
0>
1?
1I
0J
#370000
1#
16
0,
0K
1(
#380000
0#
06
1,
#390000
1#
16
0,
#400000
b1001 "
b1101 "
0#
0^
1]
06
1,
0@
1>
1A
0?
0B
0I
1S
0F
1J
1G
#410000
1#
16
0,
1K
1H
0(
0)
#420000
0#
06
1,
#430000
1#
16
0,
#440000
b1100 "
b1110 "
0#
0_
1^
06
1,
0>
03
1?
05
1O
0L
1I
1F
1C
0P
0M
0J
0G
0D
#450000
1#
16
0,
0Q
0N
0K
0H
0E
1&
1'
1(
1)
1*
#460000
0#
06
1,
#470000
1#
16
0,
#480000
b110 "
b111 "
0#
1_
0\
06
1,
1@
1>
13
0A
15
0?
1B
0O
1L
0I
0F
0C
0S
1F
1P
1M
1J
1G
1D
0G
#490000
1#
16
0,
1Q
1N
1K
1E
0&
0'
0(
0*
#500000
0#
06
1,
#510000
1#
16
0,
#520000
b11 "
b1011 "
0#
0]
1\
06
1,
0>
1?
1I
0J
#530000
b1001 !
b1101 !
1#
0b
1a
16
0,
1T
0U
1C
0D
0K
1(
#540000
0#
06
1,
#550000
1#
16
0,
0E
1*
#560000
b1001 "
b1101 "
0#
0^
1]
06
1,
0@
1>
1A
0?
0B
0I
1S
1O
0L
1I
1J
1V
0P
0M
0J
#570000
1#
16
0,
1W
0Q
0N
1+
1&
1'
#580000
0#
06
1,
#590000
1#
16
0,
#600000
b1100 "
b1110 "
0#
0_
1^
06
1,
0>
03
1?
05
0V
#610000
1#
16
0,
0W
0+
#620000
0#
06
1,
#630000
1#
16
0,
#640000
b110 "
b111 "
0#
1_
0\
06
1,
1@
1>
13
0A
15
0?
1B
1V
0S
0O
1L
0I
0V
1P
1M
1J
#650000
1#
16
0,
1Q
1N
1K
0&
0'
0(
#660000
0#
06
1,
#670000
1#
16
0,
#680000
b11 "
b1011 "
0#
0]
1\
06
1,
0>
1?
1I
0J
#690000
1#
16
0,
0K
1(
#700000
0#
06
1,
#710000
1#
16
0,
#720000
b1100 !
b1110 !
b1001 "
b1101 "
0#
0^
1]
0c
1b
06
1,
0@
1>
1U
1A
0?
0<
0T
0;
17
0B
1?
1O
0L
1S
0P
0M
1X
#730000
1#
16
0,
1Y
0Q
0N
1$
1&
1'
#740000
0#
06
1,
#750000
1#
16
0,
#760000
b1100 "
b1110 "
0#
0_
1^
06
1,
0>
03
0A
0?
14
1B
0X
0O
0I
0F
0C
1R
0S
1O
1I
1F
1C
#770000
1#
16
0,
0Y
0$
#780000
0#
06
1,
#790000
1#
16
0,
#800000
b110 "
b111 "
0#
1_
0\
06
1,
1@
1>
13
1?
04
0O
1L
0F
0C
0R
1P
1M
1G
1D
#810000
1#
16
0,
1Q
1N
1H
1E
0&
0'
0)
0*
#820000
0#
06
1,
#830000
1#
16
0,
#840000
b11 "
b1011 "
0#
0]
1\
06
1,
0>
1A
0?
0B
1O
0L
1F
1C
1S
0O
0I
0F
0C
0P
0M
0G
0D
1P
1J
1G
1D
#850000
1#
16
0,
0N
1K
1'
0(
#860000
0#
06
1,
#870000
1#
16
0,
#880000
b1001 "
b1101 "
0#
0^
1]
06
1,
0@
1>
1?
1X
1O
1I
1F
1C
0P
0J
0G
0D
#890000
1#
16
0,
1Y
0Q
0K
0H
0E
1$
1&
1(
1)
1*
#900000
0#
06
1,
#910000
1#
16
0,
#920000
b1100 "
b1110 "
0#
0_
1^
06
1,
0>
03
0A
0?
14
1B
0X
0O
0I
0F
0C
1R
0S
1O
1I
1F
1C
#930000
1#
16
0,
0Y
0$
#940000
b110 !
b10 !
b0 !
0#
0b
0a
0`
06
1,
1=
08
07
0B
1?
0R
04
1S
1X
#950000
1#
16
0,
1Y
1$
#960000
b1111 "
0#
1_
06
1,
09
0U
1<
1:
0X
0S
#970000
1#
16
0,
0Y
0$
#980000
0#
06
1,
#990000
1#
16
0,
