scan/simulation/qsim/scan.msim.vcd
$comment
	File created using the following command:
		vcd file scan.msim.vcd -direction
$end
$date
	Mon Dec 09 16:29:22 2019
$end
$version
	ModelSim Version 10.1d
$end
$timescale
	1ps
$end
$scope module scan_vlg_vec_tst $end
$var reg 4 ! C [3:0] $end
$var reg 1 " CLK $end
$var wire 1 # R [3] $end
$var wire 1 $ R [2] $end
$var wire 1 % R [1] $end
$var wire 1 & R [0] $end
$var wire 1 ' startSet $end
$var wire 1 ( sampler $end
$scope module i1 $end
$var wire 1 ) gnd $end
$var wire 1 * vcc $end
$var wire 1 + unknown $end
$var tri1 1 , devclrn $end
$var tri1 1 - devpor $end
$var tri1 1 . devoe $end
$var wire 1 / Add2~0_combout $end
$var wire 1 0 negCnt[3]~4_combout $end
$var wire 1 1 posCnt[3]~2_combout $end
$var wire 1 2 posCnt[3]~7_combout $end
$var wire 1 3 CLK~combout $end
$var wire 1 4 Equal0~0_combout $end
$var wire 1 5 posCnt[3]~3_combout $end
$var wire 1 6 posCnt[0]~6_combout $end
$var wire 1 7 posCnt[1]~4_combout $end
$var wire 1 8 Add1~0_combout $end
$var wire 1 9 posCnt[2]~5_combout $end
$var wire 1 : LessThan0~0_combout $end
$var wire 1 ; isPush~0_combout $end
$var wire 1 < isPush~regout $end
$var wire 1 = round[0]~2_combout $end
$var wire 1 > round[0]~0_combout $end
$var wire 1 ? round[1]~1_combout $end
$var wire 1 @ Decoder0~0_combout $end
$var wire 1 A R[0]~reg0_regout $end
$var wire 1 B Decoder0~1_combout $end
$var wire 1 C R[1]~reg0_regout $end
$var wire 1 D Decoder0~2_combout $end
$var wire 1 E R[2]~reg0_regout $end
$var wire 1 F Decoder0~3_combout $end
$var wire 1 G R[3]~reg0_regout $end
$var wire 1 H negCnt[0]~7_combout $end
$var wire 1 I negCnt[3]~3_combout $end
$var wire 1 J negCnt[1]~6_combout $end
$var wire 1 K negCnt[2]~8_combout $end
$var wire 1 L negCnt[2]~5_combout $end
$var wire 1 M negCnt[3]~2_combout $end
$var wire 1 N startSet~0_combout $end
$var wire 1 O startSet~reg0_regout $end
$var wire 1 P round [1] $end
$var wire 1 Q round [0] $end
$var wire 1 R posCnt [3] $end
$var wire 1 S posCnt [2] $end
$var wire 1 T posCnt [1] $end
$var wire 1 U posCnt [0] $end
$var wire 1 V negCnt [3] $end
$var wire 1 W negCnt [2] $end
$var wire 1 X negCnt [1] $end
$var wire 1 Y negCnt [0] $end
$var wire 1 Z C~combout [3] $end
$var wire 1 [ C~combout [2] $end
$var wire 1 \ C~combout [1] $end
$var wire 1 ] C~combout [0] $end
$upscope $end
$upscope $end
$enddefinitions $end
#0
$dumpvars
b1111 !
0"
0&
0%
0$
0#
0'
x(
0)
1*
x+
1,
1-
1.
0/
00
01
12
03
14
05
06
07
08
09
0:
0;
0<
1=
1>
0?
1@
0A
1B
0C
1D
0E
0F
0G
0H
0I
0J
1K
0L
0M
0N
0O
0Q
0P
0U
0T
0S
0R
0Y
0X
0W
0V
1]
1\
1[
1Z
$end
#10000
1"
13
0(
1E
1C
1A
1Q
1F
0D
1?
0=
1$
1%
1&
#20000
0"
03
1(
#30000
1"
13
0(
1G
0E
1P
0Q
1D
0B
1=
1#
0$
#40000
0"
03
1(
#50000
1"
13
0(
1E
0C
1Q
1B
0@
0?
0=
1$
0%
#60000
0"
03
1(
#70000
1"
13
0(
1C
0A
0P
0Q
0F
1@
1=
1%
0&
#80000
0"
03
1(
#90000
1"
13
0(
0G
1A
1Q
1F
0D
1?
0=
0#
1&
#100000
0"
03
1(
#110000
1"
13
0(
1G
0E
1P
0Q
1D
0B
1=
1#
0$
#120000
0"
03
1(
#130000
1"
13
0(
1E
0C
1Q
1B
0@
0?
0=
1$
0%
#140000
0"
03
1(
#150000
1"
13
0(
1C
0A
0P
0Q
0F
1@
1=
1%
0&
#160000
0"
03
1(
#170000
1"
13
0(
0G
1A
1Q
1F
0D
1?
0=
0#
1&
#180000
0"
03
1(
#190000
1"
13
0(
1G
0E
1P
0Q
1D
0B
1=
1#
0$
#200000
0"
03
1(
#210000
1"
13
0(
1E
0C
1Q
1B
0@
0?
0=
1$
0%
#220000
0"
03
1(
#230000
1"
13
0(
1C
0A
0P
0Q
0F
1@
1=
1%
0&
#240000
b111 !
b11 !
b1 !
b0 !
0"
0]
0\
0[
0Z
03
1(
04
0>
1;
15
#250000
1"
13
0(
1<
1I
1H
#260000
0"
03
1(
#270000
1"
13
0(
1Y
1J
0H
#280000
0"
03
1(
#290000
1"
13
0(
1X
0Y
1H
#300000
0"
03
1(
#310000
1"
13
0(
1Y
0K
0J
0H
1L
#320000
0"
03
1(
#330000
1"
13
0(
1W
0X
0Y
0L
1K
1H
1L
#340000
0"
03
1(
#350000
1"
13
0(
1Y
1J
0H
#360000
0"
03
1(
#370000
1"
13
0(
1X
0Y
1H
#380000
0"
03
1(
#390000
1"
13
0(
1Y
0K
0J
0H
1/
0L
10
#400000
0"
03
1(
#410000
1"
13
0(
0W
0X
0Y
1V
1L
1K
1H
0L
#420000
0"
03
1(
#430000
1"
13
0(
1Y
1J
0H
#440000
0"
03
1(
#450000
1"
13
0(
1X
0Y
1M
1H
1N
0I
0H
#460000
0"
03
1(
#470000
1"
13
0(
1O
1'
#480000
b1 !
0"
1]
03
1(
#490000
1"
13
0(
#500000
0"
03
1(
#510000
1"
13
0(
#520000
0"
03
1(
#530000
1"
13
0(
#540000
0"
03
1(
#550000
1"
13
0(
#560000
0"
03
1(
#570000
1"
13
0(
#580000
0"
03
1(
#590000
1"
13
0(
#600000
0"
03
1(
#610000
1"
13
0(
#620000
0"
03
1(
#630000
1"
13
0(
#640000
0"
03
1(
#650000
1"
13
0(
#660000
0"
03
1(
#670000
1"
13
0(
#680000
0"
03
1(
#690000
1"
13
0(
#700000
0"
03
1(
#710000
1"
13
0(
#720000
b11 !
b10 !
0"
0]
1\
03
1(
#730000
1"
13
0(
#740000
0"
03
1(
#750000
1"
13
0(
#760000
0"
03
1(
#770000
1"
13
0(
#780000
0"
03
1(
#790000
1"
13
0(
#800000
0"
03
1(
#810000
1"
13
0(
#820000
0"
03
1(
#830000
1"
13
0(
#840000
0"
03
1(
#850000
1"
13
0(
#860000
0"
03
1(
#870000
1"
13
0(
#880000
0"
03
1(
#890000
1"
13
0(
#900000
0"
03
1(
#910000
1"
13
0(
#920000
0"
03
1(
#930000
1"
13
0(
#940000
0"
03
1(
#950000
1"
13
0(
#960000
b11 !
0"
1]
03
1(
#970000
1"
13
0(
#980000
0"
03
1(
#990000
1"
13
0(
