freq/simulation/qsim/freq.msim.vcd
$comment
	File created using the following command:
		vcd file freq.msim.vcd -direction
$end
$date
	Mon Dec 09 14:54:15 2019
$end
$version
	ModelSim Version 10.1d
$end
$timescale
	1ps
$end
$scope module freq_vlg_vec_tst $end
$var reg 1 ! CLK $end
$var wire 1 " OCLK $end
$var wire 1 # sampler $end
$scope module i1 $end
$var wire 1 $ gnd $end
$var wire 1 % vcc $end
$var wire 1 & unknown $end
$var tri1 1 ' devclrn $end
$var tri1 1 ( devpor $end
$var tri1 1 ) devoe $end
$var wire 1 * Add0~0_combout $end
$var wire 1 + Add0~2_combout $end
$var wire 1 , Add0~4_combout $end
$var wire 1 - Add0~6_combout $end
$var wire 1 . Add0~8_combout $end
$var wire 1 / Add0~16_combout $end
$var wire 1 0 Equal0~0_combout $end
$var wire 1 1 cnt~0_combout $end
$var wire 1 2 cnt~1_combout $end
$var wire 1 3 cnt~2_combout $end
$var wire 1 4 CLK~combout $end
$var wire 1 5 Add0~1 $end
$var wire 1 6 Add0~3 $end
$var wire 1 7 Add0~5 $end
$var wire 1 8 Add0~7 $end
$var wire 1 9 Add0~9 $end
$var wire 1 : Add0~10_combout $end
$var wire 1 ; Add0~11 $end
$var wire 1 < Add0~12_combout $end
$var wire 1 = Add0~13 $end
$var wire 1 > Add0~14_combout $end
$var wire 1 ? Equal0~1_combout $end
$var wire 1 @ Add0~15 $end
$var wire 1 A Add0~17 $end
$var wire 1 B Add0~18_combout $end
$var wire 1 C Add0~19 $end
$var wire 1 D Add0~20_combout $end
$var wire 1 E Add0~21 $end
$var wire 1 F Add0~22_combout $end
$var wire 1 G Equal0~2_combout $end
$var wire 1 H Add0~23 $end
$var wire 1 I Add0~24_combout $end
$var wire 1 J Equal0~3_combout $end
$var wire 1 K OCLK~0_combout $end
$var wire 1 L OCLK~reg0_regout $end
$var wire 1 M cnt [12] $end
$var wire 1 N cnt [11] $end
$var wire 1 O cnt [10] $end
$var wire 1 P cnt [9] $end
$var wire 1 Q cnt [8] $end
$var wire 1 R cnt [7] $end
$var wire 1 S cnt [6] $end
$var wire 1 T cnt [5] $end
$var wire 1 U cnt [4] $end
$var wire 1 V cnt [3] $end
$var wire 1 W cnt [2] $end
$var wire 1 X cnt [1] $end
$var wire 1 Y cnt [0] $end
$upscope $end
$upscope $end
$enddefinitions $end
#0
$dumpvars
0!
0"
x#
0$
1%
x&
1'
1(
1)
1*
0+
0,
0-
0.
0/
00
01
02
13
04
05
16
07
18
09
0:
1;
0<
0=
0>
1?
1@
0A
0B
1C
0D
0E
0F
1G
1H
0I
0J
0K
0L
0Y
0X
0W
0V
0U
0T
0S
0R
0Q
0P
0O
0N
0M
$end
#10000
1!
14
0#
1Y
15
0*
1+
03
11
#20000
0!
04
1#
#30000
1!
14
0#
0Y
1X
05
1*
06
0+
16
1+
13
1,
01
0,
11
#40000
0!
04
1#
#50000
1!
14
0#
1Y
15
0*
06
0+
03
1,
01
#60000
0!
04
1#
#70000
1!
14
0#
1W
0Y
0X
17
0,
05
1*
16
1+
1-
0+
13
07
1,
11
12
01
0-
02
#80000
0!
04
1#
#90000
1!
14
0#
1Y
15
0*
1+
03
11
#100000
0!
04
1#
#110000
1!
14
0#
0Y
1X
05
1*
06
0+
16
1+
13
17
0,
01
07
1,
11
1-
0-
12
02
#120000
0!
04
1#
#130000
1!
14
0#
1Y
15
0*
06
0+
03
17
0,
01
1-
12
#140000
0!
04
1#
#150000
1!
14
0#
0W
0Y
1V
0X
07
1,
05
1*
08
0-
16
1+
18
1-
0+
13
1.
02
0,
11
0.
12
01
#160000
0!
04
1#
#170000
1!
14
0#
1Y
15
0*
1+
03
11
#180000
0!
04
1#
#190000
1!
14
0#
0Y
1X
10
05
1*
06
0+
1J
16
1+
13
1,
01
1K
03
02
0,
#200000
0!
04
1#
#210000
1!
14
0#
1L
0V
0X
0K
00
0-
0+
1"
0J
1K
13
#220000
0!
04
1#
#230000
1!
14
0#
1Y
15
0*
1+
03
11
#240000
0!
04
1#
#250000
1!
14
0#
0Y
1X
05
1*
06
0+
16
1+
13
1,
01
0,
11
#260000
0!
04
1#
#270000
1!
14
0#
1Y
15
0*
06
0+
03
1,
01
#280000
0!
04
1#
#290000
1!
14
0#
1W
0Y
0X
17
0,
05
1*
16
1+
1-
0+
13
07
1,
11
12
01
0-
02
#300000
0!
04
1#
#310000
1!
14
0#
1Y
15
0*
1+
03
11
#320000
0!
04
1#
#330000
1!
14
0#
0Y
1X
05
1*
06
0+
16
1+
13
17
0,
01
07
1,
11
1-
0-
12
02
#340000
0!
04
1#
#350000
1!
14
0#
1Y
15
0*
06
0+
03
17
0,
01
1-
12
#360000
0!
04
1#
#370000
1!
14
0#
0W
0Y
1V
0X
07
1,
05
1*
08
0-
16
1+
18
1-
0+
13
1.
02
0,
11
0.
12
01
#380000
0!
04
1#
#390000
1!
14
0#
1Y
15
0*
1+
03
11
#400000
0!
04
1#
#410000
1!
14
0#
0Y
1X
10
05
1*
06
0+
1J
16
1+
13
1,
01
0K
03
02
0,
#420000
0!
04
1#
#430000
1!
14
0#
0L
0V
0X
1K
00
0-
0+
0"
0J
0K
13
#440000
0!
04
1#
#450000
1!
14
0#
1Y
15
0*
1+
03
11
#460000
0!
04
1#
#470000
1!
14
0#
0Y
1X
05
1*
06
0+
16
1+
13
1,
01
0,
11
#480000
0!
04
1#
#490000
1!
14
0#
1Y
15
0*
06
0+
03
1,
01
#500000
0!
04
1#
#510000
1!
14
0#
1W
0Y
0X
17
0,
05
1*
16
1+
1-
0+
13
07
1,
11
12
01
0-
02
#520000
0!
04
1#
#530000
1!
14
0#
1Y
15
0*
1+
03
11
#540000
0!
04
1#
#550000
1!
14
0#
0Y
1X
05
1*
06
0+
16
1+
13
17
0,
01
07
1,
11
1-
0-
12
02
#560000
0!
04
1#
#570000
1!
14
0#
1Y
15
0*
06
0+
03
17
0,
01
1-
12
#580000
0!
04
1#
#590000
1!
14
0#
0W
0Y
1V
0X
07
1,
05
1*
08
0-
16
1+
18
1-
0+
13
1.
02
0,
11
0.
12
01
#600000
0!
04
1#
#610000
1!
14
0#
1Y
15
0*
1+
03
11
#620000
0!
04
1#
#630000
1!
14
0#
0Y
1X
10
05
1*
06
0+
1J
16
1+
13
1,
01
1K
03
02
0,
#640000
0!
04
1#
#650000
1!
14
0#
1L
0V
0X
0K
00
0-
0+
1"
0J
1K
13
#660000
0!
04
1#
#670000
1!
14
0#
1Y
15
0*
1+
03
11
#680000
0!
04
1#
#690000
1!
14
0#
0Y
1X
05
1*
06
0+
16
1+
13
1,
01
0,
11
#700000
0!
04
1#
#710000
1!
14
0#
1Y
15
0*
06
0+
03
1,
01
#720000
0!
04
1#
#730000
1!
14
0#
1W
0Y
0X
17
0,
05
1*
16
1+
1-
0+
13
07
1,
11
12
01
0-
02
#740000
0!
04
1#
#750000
1!
14
0#
1Y
15
0*
1+
03
11
#760000
0!
04
1#
#770000
1!
14
0#
0Y
1X
05
1*
06
0+
16
1+
13
17
0,
01
07
1,
11
1-
0-
12
02
#780000
0!
04
1#
#790000
1!
14
0#
1Y
15
0*
06
0+
03
17
0,
01
1-
12
#800000
0!
04
1#
#810000
1!
14
0#
0W
0Y
1V
0X
07
1,
05
1*
08
0-
16
1+
18
1-
0+
13
1.
02
0,
11
0.
12
01
#820000
0!
04
1#
#830000
1!
14
0#
1Y
15
0*
1+
03
11
#840000
0!
04
1#
#850000
1!
14
0#
0Y
1X
10
05
1*
06
0+
1J
16
1+
13
1,
01
0K
03
02
0,
#860000
0!
04
1#
#870000
1!
14
0#
0L
0V
0X
1K
00
0-
0+
0"
0J
0K
13
#880000
0!
04
1#
#890000
1!
14
0#
1Y
15
0*
1+
03
11
#900000
0!
04
1#
#910000
1!
14
0#
0Y
1X
05
1*
06
0+
16
1+
13
1,
01
0,
11
#920000
0!
04
1#
#930000
1!
14
0#
1Y
15
0*
06
0+
03
1,
01
#940000
0!
04
1#
#950000
1!
14
0#
1W
0Y
0X
17
0,
05
1*
16
1+
1-
0+
13
07
1,
11
12
01
0-
02
#960000
0!
04
1#
#970000
1!
14
0#
1Y
15
0*
1+
03
11
#980000
0!
04
1#
#990000
1!
14
0#
0Y
1X
05
1*
06
0+
16
1+
13
17
0,
01
07
1,
11
1-
0-
12
02
